%YAML 1.1
%TAG !u! tag:unity3d.com,2011:
--- !u!114 &11400000
MonoBehaviour:
  m_ObjectHideFlags: 0
  m_CorrespondingSourceObject: {fileID: 0}
  m_PrefabInstance: {fileID: 0}
  m_PrefabAsset: {fileID: 0}
  m_GameObject: {fileID: 0}
  m_Enabled: 1
  m_EditorHideFlags: 0
  m_Script: {fileID: 11500000, guid: 202564beb2f44688a60557a7ce2562a6, type: 3}
  m_Name: Main Menu Track List
  m_EditorClassIdentifier: 
  volume: 0.5
  musicClips:
  - audioClip: {fileID: 8300000, guid: 80ad3f0c70b9b1a4ab6d217ab9f42613, type: 3}
    looping: 1
