%YAML 1.1
%TAG !u! tag:unity3d.com,2011:
--- !u!114 &11400000
MonoBehaviour:
  m_ObjectHideFlags: 0
  m_CorrespondingSourceObject: {fileID: 0}
  m_PrefabInstance: {fileID: 0}
  m_PrefabAsset: {fileID: 0}
  m_GameObject: {fileID: 0}
  m_Enabled: 1
  m_EditorHideFlags: 0
  m_Script: {fileID: 11500000, guid: bd566c098de94858a7e6f9c29862cb48, type: 3}
  m_Name: Nanchang class light cruiser
  m_EditorClassIdentifier: 
  className: Nanchang class
  shipType: {fileID: 11400000, guid: b67f6449b8582e74aa9c73b864cce11d, type: 2}
  averageSizeInM: 250
  evasionAccelerationInMPSS: 3.5
  thrustAccelerationInMPSS: 8
  maxHull: 200
  maxArmor: 150
  armorType: {fileID: 11400000, guid: e5bd422866771594297fd7b95ec5e4c6, type: 2}
  armorStrength: 15
  weapons:
  - weaponClass: {fileID: 11400000, guid: ffe377462ad1e2d4a8e0a6b59a83c08a, type: 2}
    weaponCount: 1
  - weaponClass: {fileID: 11400000, guid: 1eb8060114b4b8a40951abf3b9fd044d, type: 2}
    weaponCount: 2
  - weaponClass: {fileID: 11400000, guid: c79dcfb6856d11349884d6a05ed06a69, type: 2}
    weaponCount: 1
