%YAML 1.1
%TAG !u! tag:unity3d.com,2011:
--- !u!114 &11400000
MonoBehaviour:
  m_ObjectHideFlags: 0
  m_CorrespondingSourceObject: {fileID: 0}
  m_PrefabInstance: {fileID: 0}
  m_PrefabAsset: {fileID: 0}
  m_GameObject: {fileID: 0}
  m_Enabled: 1
  m_EditorHideFlags: 0
  m_Script: {fileID: 11500000, guid: 6200bec5b8dd47d4b4d3717eeb24758e, type: 3}
  m_Name: Heavy Cruiser
  m_EditorClassIdentifier: 
  typeName: Heavy Cruiser
  typeCode: CA
  category: {fileID: 11400000, guid: 8cf50fb2da31b8f428b15ca7a84502fc, type: 2}
