%YAML 1.1
%TAG !u! tag:unity3d.com,2011:
--- !u!1 &4910697865072591610
GameObject:
  m_ObjectHideFlags: 0
  m_CorrespondingSourceObject: {fileID: 0}
  m_PrefabInstance: {fileID: 0}
  m_PrefabAsset: {fileID: 0}
  serializedVersion: 6
  m_Component:
  - component: {fileID: 4910697865072591611}
  - component: {fileID: 4910697865072591609}
  - component: {fileID: 4910697865072591608}
  - component: {fileID: 7162715167317827174}
  m_Layer: 5
  m_Name: Ship Name
  m_TagString: Untagged
  m_Icon: {fileID: 0}
  m_NavMeshLayer: 0
  m_StaticEditorFlags: 0
  m_IsActive: 1
--- !u!224 &4910697865072591611
RectTransform:
  m_ObjectHideFlags: 0
  m_CorrespondingSourceObject: {fileID: 0}
  m_PrefabInstance: {fileID: 0}
  m_PrefabAsset: {fileID: 0}
  m_GameObject: {fileID: 4910697865072591610}
  m_LocalRotation: {x: -0, y: -0, z: -0, w: 1}
  m_LocalPosition: {x: 0, y: 0, z: 0}
  m_LocalScale: {x: 1, y: 1, z: 1}
  m_ConstrainProportionsScale: 0
  m_Children: []
  m_Father: {fileID: 4910697865189678394}
  m_RootOrder: 0
  m_LocalEulerAnglesHint: {x: 0, y: 0, z: 0}
  m_AnchorMin: {x: 0, y: 1}
  m_AnchorMax: {x: 0, y: 1}
  m_AnchoredPosition: {x: 0, y: 0}
  m_SizeDelta: {x: 100, y: 20}
  m_Pivot: {x: 0, y: 1}
--- !u!222 &4910697865072591609
CanvasRenderer:
  m_ObjectHideFlags: 0
  m_CorrespondingSourceObject: {fileID: 0}
  m_PrefabInstance: {fileID: 0}
  m_PrefabAsset: {fileID: 0}
  m_GameObject: {fileID: 4910697865072591610}
  m_CullTransparentMesh: 1
--- !u!114 &4910697865072591608
MonoBehaviour:
  m_ObjectHideFlags: 0
  m_CorrespondingSourceObject: {fileID: 0}
  m_PrefabInstance: {fileID: 0}
  m_PrefabAsset: {fileID: 0}
  m_GameObject: {fileID: 4910697865072591610}
  m_Enabled: 1
  m_EditorHideFlags: 0
  m_Script: {fileID: 11500000, guid: f4688fdb7df04437aeb418b961361dc5, type: 3}
  m_Name: 
  m_EditorClassIdentifier: 
  m_Material: {fileID: 0}
  m_Color: {r: 1, g: 1, b: 1, a: 1}
  m_RaycastTarget: 1
  m_RaycastPadding: {x: 0, y: 0, z: 0, w: 0}
  m_Maskable: 1
  m_OnCullStateChanged:
    m_PersistentCalls:
      m_Calls: []
  m_text: HMS Dragon
  m_isRightToLeft: 0
  m_fontAsset: {fileID: 11400000, guid: 5cc9a4775e0a9f845b82da149474c985, type: 2}
  m_sharedMaterial: {fileID: 6622931384634538891, guid: 5cc9a4775e0a9f845b82da149474c985, type: 2}
  m_fontSharedMaterials: []
  m_fontMaterial: {fileID: 0}
  m_fontMaterials: []
  m_fontColor32:
    serializedVersion: 2
    rgba: 4294967295
  m_fontColor: {r: 1, g: 1, b: 1, a: 1}
  m_enableVertexGradient: 0
  m_colorMode: 3
  m_fontColorGradient:
    topLeft: {r: 1, g: 1, b: 1, a: 1}
    topRight: {r: 1, g: 1, b: 1, a: 1}
    bottomLeft: {r: 1, g: 1, b: 1, a: 1}
    bottomRight: {r: 1, g: 1, b: 1, a: 1}
  m_fontColorGradientPreset: {fileID: 0}
  m_spriteAsset: {fileID: 0}
  m_tintAllSprites: 0
  m_StyleSheet: {fileID: 0}
  m_TextStyleHashCode: -1183493901
  m_overrideHtmlColors: 0
  m_faceColor:
    serializedVersion: 2
    rgba: 4294967295
  m_fontSize: 12
  m_fontSizeBase: 12
  m_fontWeight: 400
  m_enableAutoSizing: 0
  m_fontSizeMin: 18
  m_fontSizeMax: 72
  m_fontStyle: 0
  m_HorizontalAlignment: 1
  m_VerticalAlignment: 512
  m_textAlignment: 65535
  m_characterSpacing: 0
  m_wordSpacing: 0
  m_lineSpacing: 0
  m_lineSpacingMax: 0
  m_paragraphSpacing: 0
  m_charWidthMaxAdj: 0
  m_enableWordWrapping: 1
  m_wordWrappingRatios: 0.4
  m_overflowMode: 0
  m_linkedTextComponent: {fileID: 0}
  parentLinkedComponent: {fileID: 0}
  m_enableKerning: 1
  m_enableExtraPadding: 0
  checkPaddingRequired: 0
  m_isRichText: 1
  m_parseCtrlCharacters: 1
  m_isOrthographic: 1
  m_isCullingEnabled: 0
  m_horizontalMapping: 0
  m_verticalMapping: 0
  m_uvLineOffset: 0
  m_geometrySortingOrder: 0
  m_IsTextObjectScaleStatic: 0
  m_VertexBufferAutoSizeReduction: 0
  m_useMaxVisibleDescender: 1
  m_pageToDisplay: 1
  m_margin: {x: 0, y: 0, z: 0, w: 0}
  m_isUsingLegacyAnimationComponent: 0
  m_isVolumetricText: 0
  m_hasFontAssetChanged: 0
  m_baseMaterial: {fileID: 0}
  m_maskOffset: {x: 0, y: 0, z: 0, w: 0}
--- !u!114 &7162715167317827174
MonoBehaviour:
  m_ObjectHideFlags: 0
  m_CorrespondingSourceObject: {fileID: 0}
  m_PrefabInstance: {fileID: 0}
  m_PrefabAsset: {fileID: 0}
  m_GameObject: {fileID: 4910697865072591610}
  m_Enabled: 1
  m_EditorHideFlags: 0
  m_Script: {fileID: 11500000, guid: 8825acd1980c9dd47b4f5bc2b5df6960, type: 3}
  m_Name: 
  m_EditorClassIdentifier: 
--- !u!1 &4910697865189678389
GameObject:
  m_ObjectHideFlags: 0
  m_CorrespondingSourceObject: {fileID: 0}
  m_PrefabInstance: {fileID: 0}
  m_PrefabAsset: {fileID: 0}
  serializedVersion: 6
  m_Component:
  - component: {fileID: 4910697865189678394}
  - component: {fileID: 4910697865189678395}
  - component: {fileID: 167299406011741637}
  m_Layer: 5
  m_Name: Ship List Item
  m_TagString: Untagged
  m_Icon: {fileID: 0}
  m_NavMeshLayer: 0
  m_StaticEditorFlags: 0
  m_IsActive: 1
--- !u!224 &4910697865189678394
RectTransform:
  m_ObjectHideFlags: 0
  m_CorrespondingSourceObject: {fileID: 0}
  m_PrefabInstance: {fileID: 0}
  m_PrefabAsset: {fileID: 0}
  m_GameObject: {fileID: 4910697865189678389}
  m_LocalRotation: {x: 0, y: 0, z: 0, w: 1}
  m_LocalPosition: {x: 0, y: 0, z: 0}
  m_LocalScale: {x: 1, y: 1, z: 1}
  m_ConstrainProportionsScale: 0
  m_Children:
  - {fileID: 4910697865072591611}
  - {fileID: 8365938026910274559}
  - {fileID: 5272070336832792961}
  m_Father: {fileID: 0}
  m_RootOrder: 0
  m_LocalEulerAnglesHint: {x: 0, y: 0, z: 0}
  m_AnchorMin: {x: 0, y: 0}
  m_AnchorMax: {x: 0, y: 0}
  m_AnchoredPosition: {x: 0, y: 0}
  m_SizeDelta: {x: 0, y: 20}
  m_Pivot: {x: 0.5, y: 0.5}
--- !u!114 &4910697865189678395
MonoBehaviour:
  m_ObjectHideFlags: 0
  m_CorrespondingSourceObject: {fileID: 0}
  m_PrefabInstance: {fileID: 0}
  m_PrefabAsset: {fileID: 0}
  m_GameObject: {fileID: 4910697865189678389}
  m_Enabled: 1
  m_EditorHideFlags: 0
  m_Script: {fileID: 11500000, guid: 306cc8c2b49d7114eaa3623786fc2126, type: 3}
  m_Name: 
  m_EditorClassIdentifier: 
  m_IgnoreLayout: 0
  m_MinWidth: -1
  m_MinHeight: 20
  m_PreferredWidth: -1
  m_PreferredHeight: 20
  m_FlexibleWidth: -1
  m_FlexibleHeight: -1
  m_LayoutPriority: 1
--- !u!114 &167299406011741637
MonoBehaviour:
  m_ObjectHideFlags: 0
  m_CorrespondingSourceObject: {fileID: 0}
  m_PrefabInstance: {fileID: 0}
  m_PrefabAsset: {fileID: 0}
  m_GameObject: {fileID: 4910697865189678389}
  m_Enabled: 1
  m_EditorHideFlags: 0
  m_Script: {fileID: 11500000, guid: d2ab0157bbbb51242a6fd5898e3c5439, type: 3}
  m_Name: 
  m_EditorClassIdentifier: 
  shipNameSetter: {fileID: 7162715167317827174}
  armorValueSetter: {fileID: 5051440004394327881}
  hullValueSetter: {fileID: 8874819901076710711}
--- !u!1001 &5577281033689499110
PrefabInstance:
  m_ObjectHideFlags: 0
  serializedVersion: 2
  m_Modification:
    m_TransformParent: {fileID: 4910697865189678394}
    m_Modifications:
    - target: {fileID: 295337428011460351, guid: 414158849ae8af34e9cdbaa60f824389, type: 3}
      propertyPath: m_AnchorMax.x
      value: 1
      objectReference: {fileID: 0}
    - target: {fileID: 295337428011460351, guid: 414158849ae8af34e9cdbaa60f824389, type: 3}
      propertyPath: m_AnchorMax.y
      value: 1
      objectReference: {fileID: 0}
    - target: {fileID: 295337428011460351, guid: 414158849ae8af34e9cdbaa60f824389, type: 3}
      propertyPath: m_SizeDelta.x
      value: -2
      objectReference: {fileID: 0}
    - target: {fileID: 295337428011460351, guid: 414158849ae8af34e9cdbaa60f824389, type: 3}
      propertyPath: m_SizeDelta.y
      value: -2
      objectReference: {fileID: 0}
    - target: {fileID: 295337428011460351, guid: 414158849ae8af34e9cdbaa60f824389, type: 3}
      propertyPath: m_LocalScale.x
      value: 1
      objectReference: {fileID: 0}
    - target: {fileID: 295337428011460351, guid: 414158849ae8af34e9cdbaa60f824389, type: 3}
      propertyPath: m_LocalScale.y
      value: 1
      objectReference: {fileID: 0}
    - target: {fileID: 295337428011460351, guid: 414158849ae8af34e9cdbaa60f824389, type: 3}
      propertyPath: m_LocalScale.z
      value: 1
      objectReference: {fileID: 0}
    - target: {fileID: 295337428011460351, guid: 414158849ae8af34e9cdbaa60f824389, type: 3}
      propertyPath: m_AnchoredPosition.x
      value: 0
      objectReference: {fileID: 0}
    - target: {fileID: 295337428011460351, guid: 414158849ae8af34e9cdbaa60f824389, type: 3}
      propertyPath: m_AnchoredPosition.y
      value: 0
      objectReference: {fileID: 0}
    - target: {fileID: 364779129468149515, guid: 414158849ae8af34e9cdbaa60f824389, type: 3}
      propertyPath: m_Name
      value: Armor Bar
      objectReference: {fileID: 0}
    - target: {fileID: 4143227834375951897, guid: 414158849ae8af34e9cdbaa60f824389, type: 3}
      propertyPath: m_Pivot.x
      value: 0
      objectReference: {fileID: 0}
    - target: {fileID: 4143227834375951897, guid: 414158849ae8af34e9cdbaa60f824389, type: 3}
      propertyPath: m_Pivot.y
      value: 0.5
      objectReference: {fileID: 0}
    - target: {fileID: 4143227834375951897, guid: 414158849ae8af34e9cdbaa60f824389, type: 3}
      propertyPath: m_RootOrder
      value: 1
      objectReference: {fileID: 0}
    - target: {fileID: 4143227834375951897, guid: 414158849ae8af34e9cdbaa60f824389, type: 3}
      propertyPath: m_AnchorMax.x
      value: 0
      objectReference: {fileID: 0}
    - target: {fileID: 4143227834375951897, guid: 414158849ae8af34e9cdbaa60f824389, type: 3}
      propertyPath: m_AnchorMax.y
      value: 0.5
      objectReference: {fileID: 0}
    - target: {fileID: 4143227834375951897, guid: 414158849ae8af34e9cdbaa60f824389, type: 3}
      propertyPath: m_AnchorMin.x
      value: 0
      objectReference: {fileID: 0}
    - target: {fileID: 4143227834375951897, guid: 414158849ae8af34e9cdbaa60f824389, type: 3}
      propertyPath: m_AnchorMin.y
      value: 0.5
      objectReference: {fileID: 0}
    - target: {fileID: 4143227834375951897, guid: 414158849ae8af34e9cdbaa60f824389, type: 3}
      propertyPath: m_SizeDelta.x
      value: 100
      objectReference: {fileID: 0}
    - target: {fileID: 4143227834375951897, guid: 414158849ae8af34e9cdbaa60f824389, type: 3}
      propertyPath: m_SizeDelta.y
      value: 8
      objectReference: {fileID: 0}
    - target: {fileID: 4143227834375951897, guid: 414158849ae8af34e9cdbaa60f824389, type: 3}
      propertyPath: m_LocalScale.x
      value: 1
      objectReference: {fileID: 0}
    - target: {fileID: 4143227834375951897, guid: 414158849ae8af34e9cdbaa60f824389, type: 3}
      propertyPath: m_LocalScale.y
      value: 1
      objectReference: {fileID: 0}
    - target: {fileID: 4143227834375951897, guid: 414158849ae8af34e9cdbaa60f824389, type: 3}
      propertyPath: m_LocalScale.z
      value: 1
      objectReference: {fileID: 0}
    - target: {fileID: 4143227834375951897, guid: 414158849ae8af34e9cdbaa60f824389, type: 3}
      propertyPath: m_LocalPosition.x
      value: 0
      objectReference: {fileID: 0}
    - target: {fileID: 4143227834375951897, guid: 414158849ae8af34e9cdbaa60f824389, type: 3}
      propertyPath: m_LocalPosition.y
      value: 0
      objectReference: {fileID: 0}
    - target: {fileID: 4143227834375951897, guid: 414158849ae8af34e9cdbaa60f824389, type: 3}
      propertyPath: m_LocalPosition.z
      value: 0
      objectReference: {fileID: 0}
    - target: {fileID: 4143227834375951897, guid: 414158849ae8af34e9cdbaa60f824389, type: 3}
      propertyPath: m_LocalRotation.w
      value: 1
      objectReference: {fileID: 0}
    - target: {fileID: 4143227834375951897, guid: 414158849ae8af34e9cdbaa60f824389, type: 3}
      propertyPath: m_LocalRotation.x
      value: -0
      objectReference: {fileID: 0}
    - target: {fileID: 4143227834375951897, guid: 414158849ae8af34e9cdbaa60f824389, type: 3}
      propertyPath: m_LocalRotation.y
      value: -0
      objectReference: {fileID: 0}
    - target: {fileID: 4143227834375951897, guid: 414158849ae8af34e9cdbaa60f824389, type: 3}
      propertyPath: m_LocalRotation.z
      value: -0
      objectReference: {fileID: 0}
    - target: {fileID: 4143227834375951897, guid: 414158849ae8af34e9cdbaa60f824389, type: 3}
      propertyPath: m_AnchoredPosition.x
      value: 90
      objectReference: {fileID: 0}
    - target: {fileID: 4143227834375951897, guid: 414158849ae8af34e9cdbaa60f824389, type: 3}
      propertyPath: m_AnchoredPosition.y
      value: 5
      objectReference: {fileID: 0}
    - target: {fileID: 4143227834375951897, guid: 414158849ae8af34e9cdbaa60f824389, type: 3}
      propertyPath: m_LocalEulerAnglesHint.x
      value: 0
      objectReference: {fileID: 0}
    - target: {fileID: 4143227834375951897, guid: 414158849ae8af34e9cdbaa60f824389, type: 3}
      propertyPath: m_LocalEulerAnglesHint.y
      value: 0
      objectReference: {fileID: 0}
    - target: {fileID: 4143227834375951897, guid: 414158849ae8af34e9cdbaa60f824389, type: 3}
      propertyPath: m_LocalEulerAnglesHint.z
      value: 0
      objectReference: {fileID: 0}
    - target: {fileID: 9169433316247716568, guid: 414158849ae8af34e9cdbaa60f824389, type: 3}
      propertyPath: m_Color.b
      value: 0.4528302
      objectReference: {fileID: 0}
    - target: {fileID: 9169433316247716568, guid: 414158849ae8af34e9cdbaa60f824389, type: 3}
      propertyPath: m_Color.g
      value: 0.4528302
      objectReference: {fileID: 0}
    - target: {fileID: 9169433316247716568, guid: 414158849ae8af34e9cdbaa60f824389, type: 3}
      propertyPath: m_Color.r
      value: 0.4528302
      objectReference: {fileID: 0}
    - target: {fileID: 9169433316247716568, guid: 414158849ae8af34e9cdbaa60f824389, type: 3}
      propertyPath: m_FillAmount
      value: 1
      objectReference: {fileID: 0}
    m_RemovedComponents: []
  m_SourcePrefab: {fileID: 100100000, guid: 414158849ae8af34e9cdbaa60f824389, type: 3}
--- !u!114 &5051440004394327881 stripped
MonoBehaviour:
  m_CorrespondingSourceObject: {fileID: 827583055337691823, guid: 414158849ae8af34e9cdbaa60f824389, type: 3}
  m_PrefabInstance: {fileID: 5577281033689499110}
  m_PrefabAsset: {fileID: 0}
  m_GameObject: {fileID: 0}
  m_Enabled: 1
  m_EditorHideFlags: 0
  m_Script: {fileID: 11500000, guid: e624adf5d4977744695334b208922b00, type: 3}
  m_Name: 
  m_EditorClassIdentifier: 
--- !u!224 &8365938026910274559 stripped
RectTransform:
  m_CorrespondingSourceObject: {fileID: 4143227834375951897, guid: 414158849ae8af34e9cdbaa60f824389, type: 3}
  m_PrefabInstance: {fileID: 5577281033689499110}
  m_PrefabAsset: {fileID: 0}
--- !u!1001 &8094547199615549336
PrefabInstance:
  m_ObjectHideFlags: 0
  serializedVersion: 2
  m_Modification:
    m_TransformParent: {fileID: 4910697865189678394}
    m_Modifications:
    - target: {fileID: 364779129468149515, guid: 414158849ae8af34e9cdbaa60f824389, type: 3}
      propertyPath: m_Name
      value: Hull Bar
      objectReference: {fileID: 0}
    - target: {fileID: 4143227834375951897, guid: 414158849ae8af34e9cdbaa60f824389, type: 3}
      propertyPath: m_Pivot.x
      value: 0
      objectReference: {fileID: 0}
    - target: {fileID: 4143227834375951897, guid: 414158849ae8af34e9cdbaa60f824389, type: 3}
      propertyPath: m_Pivot.y
      value: 0.5
      objectReference: {fileID: 0}
    - target: {fileID: 4143227834375951897, guid: 414158849ae8af34e9cdbaa60f824389, type: 3}
      propertyPath: m_RootOrder
      value: 2
      objectReference: {fileID: 0}
    - target: {fileID: 4143227834375951897, guid: 414158849ae8af34e9cdbaa60f824389, type: 3}
      propertyPath: m_AnchorMax.x
      value: 0
      objectReference: {fileID: 0}
    - target: {fileID: 4143227834375951897, guid: 414158849ae8af34e9cdbaa60f824389, type: 3}
      propertyPath: m_AnchorMax.y
      value: 0.5
      objectReference: {fileID: 0}
    - target: {fileID: 4143227834375951897, guid: 414158849ae8af34e9cdbaa60f824389, type: 3}
      propertyPath: m_AnchorMin.x
      value: 0
      objectReference: {fileID: 0}
    - target: {fileID: 4143227834375951897, guid: 414158849ae8af34e9cdbaa60f824389, type: 3}
      propertyPath: m_AnchorMin.y
      value: 0.5
      objectReference: {fileID: 0}
    - target: {fileID: 4143227834375951897, guid: 414158849ae8af34e9cdbaa60f824389, type: 3}
      propertyPath: m_SizeDelta.x
      value: 100
      objectReference: {fileID: 0}
    - target: {fileID: 4143227834375951897, guid: 414158849ae8af34e9cdbaa60f824389, type: 3}
      propertyPath: m_SizeDelta.y
      value: 8
      objectReference: {fileID: 0}
    - target: {fileID: 4143227834375951897, guid: 414158849ae8af34e9cdbaa60f824389, type: 3}
      propertyPath: m_LocalScale.x
      value: 1
      objectReference: {fileID: 0}
    - target: {fileID: 4143227834375951897, guid: 414158849ae8af34e9cdbaa60f824389, type: 3}
      propertyPath: m_LocalScale.y
      value: 1
      objectReference: {fileID: 0}
    - target: {fileID: 4143227834375951897, guid: 414158849ae8af34e9cdbaa60f824389, type: 3}
      propertyPath: m_LocalScale.z
      value: 1
      objectReference: {fileID: 0}
    - target: {fileID: 4143227834375951897, guid: 414158849ae8af34e9cdbaa60f824389, type: 3}
      propertyPath: m_LocalPosition.x
      value: 0
      objectReference: {fileID: 0}
    - target: {fileID: 4143227834375951897, guid: 414158849ae8af34e9cdbaa60f824389, type: 3}
      propertyPath: m_LocalPosition.y
      value: 0
      objectReference: {fileID: 0}
    - target: {fileID: 4143227834375951897, guid: 414158849ae8af34e9cdbaa60f824389, type: 3}
      propertyPath: m_LocalPosition.z
      value: 0
      objectReference: {fileID: 0}
    - target: {fileID: 4143227834375951897, guid: 414158849ae8af34e9cdbaa60f824389, type: 3}
      propertyPath: m_LocalRotation.w
      value: 1
      objectReference: {fileID: 0}
    - target: {fileID: 4143227834375951897, guid: 414158849ae8af34e9cdbaa60f824389, type: 3}
      propertyPath: m_LocalRotation.x
      value: -0
      objectReference: {fileID: 0}
    - target: {fileID: 4143227834375951897, guid: 414158849ae8af34e9cdbaa60f824389, type: 3}
      propertyPath: m_LocalRotation.y
      value: -0
      objectReference: {fileID: 0}
    - target: {fileID: 4143227834375951897, guid: 414158849ae8af34e9cdbaa60f824389, type: 3}
      propertyPath: m_LocalRotation.z
      value: -0
      objectReference: {fileID: 0}
    - target: {fileID: 4143227834375951897, guid: 414158849ae8af34e9cdbaa60f824389, type: 3}
      propertyPath: m_AnchoredPosition.x
      value: 90
      objectReference: {fileID: 0}
    - target: {fileID: 4143227834375951897, guid: 414158849ae8af34e9cdbaa60f824389, type: 3}
      propertyPath: m_AnchoredPosition.y
      value: -5
      objectReference: {fileID: 0}
    - target: {fileID: 4143227834375951897, guid: 414158849ae8af34e9cdbaa60f824389, type: 3}
      propertyPath: m_LocalEulerAnglesHint.x
      value: 0
      objectReference: {fileID: 0}
    - target: {fileID: 4143227834375951897, guid: 414158849ae8af34e9cdbaa60f824389, type: 3}
      propertyPath: m_LocalEulerAnglesHint.y
      value: 0
      objectReference: {fileID: 0}
    - target: {fileID: 4143227834375951897, guid: 414158849ae8af34e9cdbaa60f824389, type: 3}
      propertyPath: m_LocalEulerAnglesHint.z
      value: 0
      objectReference: {fileID: 0}
    - target: {fileID: 9169433316247716568, guid: 414158849ae8af34e9cdbaa60f824389, type: 3}
      propertyPath: m_Color.b
      value: 0.35283017
      objectReference: {fileID: 0}
    - target: {fileID: 9169433316247716568, guid: 414158849ae8af34e9cdbaa60f824389, type: 3}
      propertyPath: m_Color.g
      value: 0.35283017
      objectReference: {fileID: 0}
    - target: {fileID: 9169433316247716568, guid: 414158849ae8af34e9cdbaa60f824389, type: 3}
      propertyPath: m_Color.r
      value: 1
      objectReference: {fileID: 0}
    m_RemovedComponents: []
  m_SourcePrefab: {fileID: 100100000, guid: 414158849ae8af34e9cdbaa60f824389, type: 3}
--- !u!224 &5272070336832792961 stripped
RectTransform:
  m_CorrespondingSourceObject: {fileID: 4143227834375951897, guid: 414158849ae8af34e9cdbaa60f824389, type: 3}
  m_PrefabInstance: {fileID: 8094547199615549336}
  m_PrefabAsset: {fileID: 0}
--- !u!114 &8874819901076710711 stripped
MonoBehaviour:
  m_CorrespondingSourceObject: {fileID: 827583055337691823, guid: 414158849ae8af34e9cdbaa60f824389, type: 3}
  m_PrefabInstance: {fileID: 8094547199615549336}
  m_PrefabAsset: {fileID: 0}
  m_GameObject: {fileID: 0}
  m_Enabled: 1
  m_EditorHideFlags: 0
  m_Script: {fileID: 11500000, guid: e624adf5d4977744695334b208922b00, type: 3}
  m_Name: 
  m_EditorClassIdentifier: 
