%YAML 1.1
%TAG !u! tag:unity3d.com,2011:
--- !u!114 &11400000
MonoBehaviour:
  m_ObjectHideFlags: 0
  m_CorrespondingSourceObject: {fileID: 0}
  m_PrefabInstance: {fileID: 0}
  m_PrefabAsset: {fileID: 0}
  m_GameObject: {fileID: 0}
  m_Enabled: 1
  m_EditorHideFlags: 0
  m_Script: {fileID: 11500000, guid: d56bfcb55a6642d996027c3d0d373cce, type: 3}
  m_Name: Move Command Voice
  m_EditorClassIdentifier: 
  audioType: 2
  audioClips:
  - {fileID: 8300000, guid: 77c5d7c79b60f5e42b8fd0756315b269, type: 3}
  - {fileID: 8300000, guid: 12232419e40450f409ab57d611a28d64, type: 3}
  - {fileID: 8300000, guid: acbab3bdfaf35bf4d86ba90e4bbe0fb9, type: 3}
  - {fileID: 8300000, guid: 998fbf5e2ab66554d8a47ab585759a2d, type: 3}
  - {fileID: 8300000, guid: 924eefab0a8d5e74d99273043384c7c9, type: 3}
  - {fileID: 8300000, guid: a5c54a8b7179f4441ac7ad44b87d08dc, type: 3}
  - {fileID: 8300000, guid: b39a0996a622dd849bc023e5b9b819bc, type: 3}
  basePitch: 1
  pitchVariationPercentage: 0.05
  minDelayBetweenSounds: 0.2
  volume: 1
