{
    "name": "Utils",
    "rootNamespace": "",
    "references": [
        "GUID:13a6fdc14ca9df84eb8019bc66fa9e5d",
        "GUID:1491147abca9d7d4bb7105af628b223e",
        "GUID:3b8ed52f1b5c64994af4c4e0aa4b6c4b",
        "GUID:6055be8ebefd69e48b49212b09b47b2f",
        "GUID:e0cd26848372d4e5c891c569017e11f1"
    ],
    "includePlatforms": [],
    "excludePlatforms": [],
    "allowUnsafeCode": false,
    "overrideReferences": false,
    "precompiledReferences": [],
    "autoReferenced": true,
    "defineConstraints": [],
    "versionDefines": [],
    "noEngineReferences": false
}