%YAML 1.1
%TAG !u! tag:unity3d.com,2011:
--- !u!1 &5044788310542509992
GameObject:
  m_ObjectHideFlags: 0
  m_CorrespondingSourceObject: {fileID: 0}
  m_PrefabInstance: {fileID: 0}
  m_PrefabAsset: {fileID: 0}
  serializedVersion: 6
  m_Component:
  - component: {fileID: 5044788310542509993}
  - component: {fileID: 5044788310542509990}
  - component: {fileID: 5044788310542509989}
  - component: {fileID: 5044788310542509988}
  - component: {fileID: 5044788310542509991}
  m_Layer: 0
  m_Name: Ship Wreck
  m_TagString: Untagged
  m_Icon: {fileID: 0}
  m_NavMeshLayer: 0
  m_StaticEditorFlags: 0
  m_IsActive: 1
--- !u!4 &5044788310542509993
Transform:
  m_ObjectHideFlags: 0
  m_CorrespondingSourceObject: {fileID: 0}
  m_PrefabInstance: {fileID: 0}
  m_PrefabAsset: {fileID: 0}
  m_GameObject: {fileID: 5044788310542509992}
  m_LocalRotation: {x: 0, y: 0, z: 0, w: 1}
  m_LocalPosition: {x: 0, y: 0, z: 0}
  m_LocalScale: {x: 1, y: 1, z: 1}
  m_ConstrainProportionsScale: 0
  m_Children: []
  m_Father: {fileID: 0}
  m_RootOrder: 0
  m_LocalEulerAnglesHint: {x: 0, y: 0, z: 0}
--- !u!114 &5044788310542509990
MonoBehaviour:
  m_ObjectHideFlags: 0
  m_CorrespondingSourceObject: {fileID: 0}
  m_PrefabInstance: {fileID: 0}
  m_PrefabAsset: {fileID: 0}
  m_GameObject: {fileID: 5044788310542509992}
  m_Enabled: 1
  m_EditorHideFlags: 0
  m_Script: {fileID: 11500000, guid: d5a57f767e5e46a458fc5d3c628d0cbb, type: 3}
  m_Name: 
  m_EditorClassIdentifier: 
  GlobalObjectIdHash: 951099334
  AlwaysReplicateAsRoot: 0
  DontDestroyWithOwner: 0
  AutoObjectParentSync: 1
--- !u!114 &5044788310542509989
MonoBehaviour:
  m_ObjectHideFlags: 0
  m_CorrespondingSourceObject: {fileID: 0}
  m_PrefabInstance: {fileID: 0}
  m_PrefabAsset: {fileID: 0}
  m_GameObject: {fileID: 5044788310542509992}
  m_Enabled: 1
  m_EditorHideFlags: 0
  m_Script: {fileID: 11500000, guid: f04f06d2d8904c44a9184b5713e53285, type: 3}
  m_Name: 
  m_EditorClassIdentifier: 
  blendMode: 1
  scaleMode: 0
  color: {r: 1, g: 1, b: 1, a: 1}
  detailLevel: 2
  renderQueue: -1
  zTest: 4
  zOffsetFactor: 0
  zOffsetUnits: 0
  stencilComp: 8
  stencilOpPass: 0
  stencilRefID: 0
  stencilReadMask: 255
  stencilWriteMask: 255
  points:
  - {x: 0.1, y: 0.5}
  - {x: 0.1, y: 0.1}
  - {x: 0.5, y: 0.1}
  - {x: 0.5, y: -0.1}
  - {x: 0.1, y: -0.1}
  - {x: 0.1, y: -0.5}
  - {x: -0.1, y: -0.5}
  - {x: -0.1, y: -0.1}
  - {x: -0.5, y: -0.1}
  - {x: -0.5, y: 0.1}
  - {x: -0.1, y: 0.1}
  - {x: -0.1, y: 0.5}
  triangulation: 1
  fill:
    type: 0
    space: 0
    colorStart: {r: 0, g: 0, b: 0, a: 1}
    colorEnd: {r: 1, g: 1, b: 1, a: 1}
    linearStart: {x: 0, y: 0, z: 0}
    linearEnd: {x: 0, y: 1, z: 0}
    radialOrigin: {x: 0, y: 0, z: 0}
    radialRadius: 1
  useFill: 0
--- !u!33 &5044788310542509988
MeshFilter:
  m_ObjectHideFlags: 0
  m_CorrespondingSourceObject: {fileID: 0}
  m_PrefabInstance: {fileID: 0}
  m_PrefabAsset: {fileID: 0}
  m_GameObject: {fileID: 5044788310542509992}
  m_Mesh: {fileID: 0}
--- !u!23 &5044788310542509991
MeshRenderer:
  m_ObjectHideFlags: 0
  m_CorrespondingSourceObject: {fileID: 0}
  m_PrefabInstance: {fileID: 0}
  m_PrefabAsset: {fileID: 0}
  m_GameObject: {fileID: 5044788310542509992}
  m_Enabled: 1
  m_CastShadows: 1
  m_ReceiveShadows: 1
  m_DynamicOccludee: 1
  m_StaticShadowCaster: 0
  m_MotionVectors: 1
  m_LightProbeUsage: 1
  m_ReflectionProbeUsage: 1
  m_RayTracingMode: 2
  m_RayTraceProcedural: 0
  m_RenderingLayerMask: 1
  m_RendererPriority: 0
  m_Materials:
  - {fileID: 2100000, guid: c5f53c096dcf05944bad0590105dd546, type: 2}
  m_StaticBatchInfo:
    firstSubMesh: 0
    subMeshCount: 0
  m_StaticBatchRoot: {fileID: 0}
  m_ProbeAnchor: {fileID: 0}
  m_LightProbeVolumeOverride: {fileID: 0}
  m_ScaleInLightmap: 1
  m_ReceiveGI: 1
  m_PreserveUVs: 0
  m_IgnoreNormalsForChartDetection: 0
  m_ImportantGI: 0
  m_StitchLightmapSeams: 1
  m_SelectedEditorRenderState: 3
  m_MinimumChartSize: 4
  m_AutoUVMaxDistance: 0.5
  m_AutoUVMaxAngle: 89
  m_LightmapParameters: {fileID: 0}
  m_SortingLayerID: 0
  m_SortingLayer: 0
  m_SortingOrder: 0
  m_AdditionalVertexStreams: {fileID: 0}
